G1 X102.350 Y84.645 E3.03230 F200
G1 X103.449 Y83.484 E6.29018
G1 X104.608 Y82.383 E9.54744
G1 X105.745 Y81.407 E12.59916
G1 X106.520 Y80.796 E14.60921
G1 X107.728 Y79.919 E17.65233
G1 X108.964 Y79.112 E20.65938
G1 X110.322 Y78.318 E23.86439
G1 X111.705 Y77.602 E27.03802
G1 X113.223 Y76.917 E30.43113
G1 X113.815 Y76.675 E31.73339
G1 X115.134 Y76.190 E34.59715
G1 X116.564 Y75.739 E37.65302
G1 X117.994 Y75.364 E40.66557
G1 X119.421 Y75.063 E43.63691
G1 X120.850 Y74.831 E46.58587
G1 X122.267 Y74.670 E49.49203
G1 X123.664 Y74.576 E52.34362
G1 X125.101 Y74.548 E55.27325
G1 X126.385 Y74.579 E57.88866
G1 X127.790 Y74.675 E60.75934
G1 X129.101 Y74.825 E63.44680
G1 X130.627 Y75.072 E66.59755
G1 X131.959 Y75.353 E69.37023
G1 X133.395 Y75.727 E72.39476
G1 X134.831 Y76.178 E75.46061
G1 X136.119 Y76.650 E78.25578
G1 X136.814 Y76.932 E79.78378
G1 X138.245 Y77.578 E82.98321
G1 X139.636 Y78.295 E86.17272
G1 X141.004 Y79.091 E89.39606
G1 X141.737 Y79.559 E91.16935
G1 X142.962 Y80.409 E94.20662
G1 X144.224 Y81.382 E97.45451
G1 X145.355 Y82.350 E100.48681
G1 X146.516 Y83.449 E103.74469
G1 X147.617 Y84.608 E107.00195
G1 X148.593 Y85.745 E110.05367
G1 X149.204 Y86.520 E112.06373
G1 X150.081 Y87.728 E115.10684
G1 X150.888 Y88.964 E118.11389
G1 X151.682 Y90.322 E121.31891
G1 X152.399 Y91.707 E124.49698
G1 X153.043 Y93.127 E127.67449
G1 X153.325 Y93.815 E129.18907
G1 X153.810 Y95.134 E132.05179
G1 X154.261 Y96.564 E135.10765
G1 X154.636 Y97.994 E138.12019
G1 X154.937 Y99.421 E141.09155
G1 X155.169 Y100.850 E144.04051
G1 X155.330 Y102.267 E146.94667
G1 X155.424 Y103.666 E149.80335
G1 X155.453 Y104.999 E152.51993
G1 X155.421 Y106.385 E155.34502
G1 X155.325 Y107.790 E158.21408
G1 X155.175 Y109.101 E160.90153
G1 X154.928 Y110.627 E164.05230
G1 X154.647 Y111.959 E166.82499
G1 X154.273 Y113.395 E169.84950
G1 X153.822 Y114.831 E172.91536
G1 X153.350 Y116.119 E175.71053
G1 X153.068 Y116.814 E177.23853
G1 X152.422 Y118.245 E180.43795
G1 X151.705 Y119.636 E183.62746
G1 X150.909 Y121.004 E186.85081
G1 X150.441 Y121.737 E188.62411
G1 X149.591 Y122.962 E191.66137
G1 X148.618 Y124.224 E194.90926
G1 X147.650 Y125.355 E197.94157
G1 X146.551 Y126.516 E201.19943
G1 X145.392 Y127.617 E204.45669
G1 X144.255 Y128.593 E207.50842
G1 X143.480 Y129.204 E209.51848
G1 X142.272 Y130.081 E212.56159
G1 X141.036 Y130.888 E215.56864
G1 X139.678 Y131.682 E218.77366
G1 X138.293 Y132.399 E221.95173
G1 X136.873 Y133.043 E225.12924
G1 X136.185 Y133.325 E226.64382
G1 X134.866 Y133.810 E229.50654
G1 X133.436 Y134.261 E232.56240
G1 X132.006 Y134.636 E235.57494
G1 X130.579 Y134.937 E238.54630
G1 X129.150 Y135.169 E241.49526
G1 X127.733 Y135.330 E244.40141
G1 X126.334 Y135.424 E247.25810
G1 X125.001 Y135.453 E249.97468
G1 X123.615 Y135.421 E252.79977
G1 X122.210 Y135.325 E255.66883
G1 X120.899 Y135.175 E258.35628
G1 X119.373 Y134.928 E261.50705
G1 X118.041 Y134.647 E264.27974
G1 X116.605 Y134.273 E267.30424
G1 X115.169 Y133.822 E270.37011
G1 X113.881 Y133.350 E273.16528
G1 X113.186 Y133.068 E274.69328
G1 X111.755 Y132.422 E277.89270
G1 X110.364 Y131.705 E281.08220
G1 X108.996 Y130.909 E284.30556
G1 X108.263 Y130.441 E286.07885
G1 X107.038 Y129.591 E289.11612
G1 X105.776 Y128.618 E292.36401
G1 X104.645 Y127.650 E295.39631
G1 X103.484 Y126.551 E298.65418
G1 X102.383 Y125.392 E301.91144
G1 X101.407 Y124.255 E304.96317
G1 X100.796 Y123.480 E306.97323
G1 X99.919 Y122.272 E310.01634
G1 X99.112 Y121.036 E313.02339
G1 X98.318 Y119.678 E316.22840
G1 X97.601 Y118.293 E319.40648
G1 X96.957 Y116.873 E322.58400
G1 X96.675 Y116.185 E324.09857
G1 X96.190 Y114.866 E326.96128
G1 X95.739 Y113.436 E330.01715
G1 X95.364 Y112.006 E333.02970
G1 X95.063 Y110.579 E336.00105
G1 X94.831 Y109.150 E338.95000
G1 X94.670 Y107.733 E341.85616
G1 X94.576 Y106.334 E344.71285
G1 X94.547 Y105.001 E347.42943
G1 X94.579 Y103.615 E350.25452
G1 X94.675 Y102.210 E353.12358
G1 X94.825 Y100.899 E355.81104
G1 X95.072 Y99.373 E358.96179
G1 X95.353 Y98.041 E361.73448
G1 X95.727 Y96.605 E364.75900
G1 X96.178 Y95.169 E367.82486
G1 X96.650 Y93.881 E370.62002
G1 X96.932 Y93.186 E372.14802
G1 X97.578 Y91.755 E375.34746
G1 X98.295 Y90.364 E378.53696
G1 X99.091 Y88.996 E381.76031
G1 X99.559 Y88.263 E383.53359
G1 X100.409 Y87.038 E386.57087
G1 X101.043 Y86.215 E388.68795
G1 Z3.000 
G1 X100.988 Y86.171
G1 X101.574 Y85.436 E390.60347
G1 X102.444 Y84.437 E393.30113
G1 X103.590 Y83.247 E396.66900
G1 X104.551 Y82.340 E399.36171
G1 X105.802 Y81.271 E402.71426
G1 X107.105 Y80.273 E406.05781
G1 X108.184 Y79.528 E408.72925
G1 X109.565 Y78.668 E412.04397
G1 X110.975 Y77.891 E415.32540
G1 X112.417 Y77.192 E418.59033
G1 X113.590 Y76.691 E421.18826
G1 X114.980 Y76.170 E424.21288
G1 X116.432 Y75.706 E427.31809
G1 X117.884 Y75.319 E430.38025
G1 X119.333 Y75.009 E433.39958
G1 X120.804 Y74.767 E436.43763
G1 X122.267 Y74.600 E439.43765
G1 X123.703 Y74.505 E442.36946
G1 X125.304 Y74.481 E445.63172
G1 X126.442 Y74.512 E447.95100
G1 X127.899 Y74.616 E450.92751
G1 X129.343 Y74.789 E453.89095
G1 X130.808 Y75.037 E456.91735
G1 X131.979 Y75.286 E459.35619
G1 X133.725 Y75.754 E463.04074
G1 X134.917 Y76.134 E465.59008
G1 X135.935 Y76.504 E467.79568
G1 X136.959 Y76.918 E470.04564
G1 X138.448 Y77.600 E473.38473
G1 X139.603 Y78.198 E476.03415
G1 X141.009 Y79.013 E479.34546
G1 X142.107 Y79.723 E482.00875
G1 X143.440 Y80.678 E485.35109
G1 X144.564 Y81.574 E488.27938
G1 X145.563 Y82.444 E490.97703
G1 X146.753 Y83.590 E494.34490
G1 X147.660 Y84.551 E497.03761
G1 X148.729 Y85.802 E500.39016
G1 X149.727 Y87.105 E503.73371
G1 X150.472 Y88.184 E506.40514
G1 X151.332 Y89.565 E509.71987
G1 X152.109 Y90.975 E513.00130
G1 X152.808 Y92.417 E516.26624
G1 X153.309 Y93.590 E518.86415
G1 X153.830 Y94.980 E521.88879
G1 X154.294 Y96.432 E524.99398
G1 X154.681 Y97.884 E528.05615
G1 X154.991 Y99.333 E531.07548
G1 X155.233 Y100.804 E534.11353
G1 X155.400 Y102.267 E537.11356
G1 X155.495 Y103.710 E540.05887
G1 X155.523 Y104.997 E542.68304
G1 X155.488 Y106.445 E545.63311
G1 X155.384 Y107.899 E548.60367
G1 X155.211 Y109.343 E551.56710
G1 X154.963 Y110.808 E554.59352
G1 X154.715 Y111.975 E557.02480
G1 X154.330 Y113.446 E560.12357
G1 X153.865 Y114.920 E563.27144
G1 X153.495 Y115.939 E565.48217
G1 X153.203 Y116.670 E567.08487
G1 X152.537 Y118.164 E570.41819
G1 X151.800 Y119.608 E573.72139
G1 X150.985 Y121.012 E577.02855
G1 X150.387 Y121.944 E579.28529
G1 X149.630 Y123.027 E581.97603
G1 X148.623 Y124.329 E585.33076
G1 X147.765 Y125.332 E588.01997
G1 X146.634 Y126.531 E591.37755
G1 X145.441 Y127.667 E594.73459
G1 X144.439 Y128.531 E597.43023
G1 X143.306 Y129.423 E600.36887
G1 X142.231 Y130.193 E603.06246
G1 X141.132 Y130.911 E605.73645
G1 X139.734 Y131.731 E609.04034
G1 X138.309 Y132.468 E612.30899
G1 X136.848 Y133.129 E615.57618
G1 X136.137 Y133.419 E617.14079
G1 X135.025 Y133.828 E619.55472
G1 X133.568 Y134.294 E622.67084
G1 X132.116 Y134.681 E625.73300
G1 X130.667 Y134.991 E628.75235
G1 X129.196 Y135.233 E631.79039
G1 X127.733 Y135.400 E634.79042
G1 X126.290 Y135.495 E637.73574
G1 X125.003 Y135.523 E640.35991
G1 X123.555 Y135.488 E643.30997
G1 X122.101 Y135.384 E646.28053
G1 X120.657 Y135.211 E649.24396
G1 X119.192 Y134.963 E652.27038
G1 X118.025 Y134.715 E654.70166
G1 X116.554 Y134.330 E657.80043
G1 X115.080 Y133.865 E660.94830
G1 X114.061 Y133.495 E663.15903
G1 X113.330 Y133.203 E664.76173
G1 X111.836 Y132.537 E668.09506
G1 X110.392 Y131.800 E671.39825
G1 X108.988 Y130.985 E674.70541
G1 X108.056 Y130.387 E676.96215
G1 X106.973 Y129.630 E679.65289
G1 X105.671 Y128.623 E683.00762
G1 X104.668 Y127.765 E685.69682
G1 X103.469 Y126.634 E689.05440
G1 X102.333 Y125.441 E692.41145
G1 X101.469 Y124.439 E695.10710
G1 X100.577 Y123.306 E698.04573
G1 X99.807 Y122.231 E700.73931
G1 X99.089 Y121.132 E703.41331
G1 X98.269 Y119.734 E706.71721
G1 X97.532 Y118.309 E709.98585
G1 X96.871 Y116.848 E713.25304
G1 X96.581 Y116.137 E714.81763
G1 X96.172 Y115.025 E717.23158
G1 X95.706 Y113.568 E720.34771
G1 X95.319 Y112.116 E723.40987
G1 X95.009 Y110.667 E726.42920
G1 X94.767 Y109.196 E729.46725
G1 X94.600 Y107.733 E732.46727
G1 X94.505 Y106.290 E735.41261
G1 X94.477 Y105.003 E738.03678
G1 X94.512 Y103.555 E740.98683
G1 X94.616 Y102.101 E743.95739
G1 X94.789 Y100.657 E746.92083
G1 X95.037 Y99.192 E749.94724
G1 X95.286 Y98.021 E752.38607
G1 X95.591 Y96.836 E754.87979
G1 X96.134 Y95.083 E758.62011
G1 X96.504 Y94.065 E760.82571
G1 X96.918 Y93.041 E763.07566
G1 X97.600 Y91.552 E766.41476
G1 X98.198 Y90.397 E769.06417
G1 X99.013 Y88.991 E772.37549
G1 X99.723 Y87.893 E775.03877
G1 X100.644 Y86.607 E778.26306
G1 Z4.500 
G1 X100.594 Y86.569
G1 X100.830 Y86.247 E779.07861
G1 X101.606 Y85.287 E781.59191
G1 X102.724 Y84.032 E785.01655
G1 X103.595 Y83.144 E787.55122
G1 X104.501 Y82.292 E790.08535
G1 X105.778 Y81.201 E793.50757
G1 X106.752 Y80.446 E796.01784
G1 X108.118 Y79.488 E799.41959
G1 X109.151 Y78.834 E801.90928
G1 X110.581 Y78.020 E805.26166
G1 X112.034 Y77.292 E808.57341
G1 X113.512 Y76.647 E811.85916
G1 X114.824 Y76.151 E814.71657
G1 X116.299 Y75.673 E817.87616
G1 X117.773 Y75.274 E820.98806
G1 X119.244 Y74.955 E824.05542
G1 X120.759 Y74.704 E827.18269
G1 X122.267 Y74.530 E830.27693
G1 X123.757 Y74.433 E833.31830
G1 X124.751 Y74.409 E835.34386
G1 X126.499 Y74.445 E838.90592
G1 X128.010 Y74.557 E841.99449
G1 X129.488 Y74.740 E845.02749
G1 X130.979 Y75.000 E848.11144
G1 X132.489 Y75.341 E851.26585
G1 X133.503 Y75.613 E853.40520
G1 X135.002 Y76.089 E856.61057
G1 X135.853 Y76.397 E858.45357
G1 X137.003 Y76.861 E860.97979
G1 X138.131 Y77.370 E863.50188
G1 X139.610 Y78.122 E866.88154
G1 X141.028 Y78.943 E870.22188
G1 X142.410 Y79.846 E873.58425
G1 X143.753 Y80.830 E876.97749
G1 X144.713 Y81.606 E879.49079
G1 X145.968 Y82.724 E882.91542
G1 X146.856 Y83.595 E885.45009
G1 X147.708 Y84.501 E887.98423
G1 X148.799 Y85.778 E891.40644
G1 X149.553 Y86.752 E893.91671
G1 X150.512 Y88.118 E897.31847
G1 X151.166 Y89.151 E899.80816
G1 X151.980 Y90.581 E903.16053
G1 X152.708 Y92.034 E906.47229
G1 X153.353 Y93.512 E909.75802
G1 X153.849 Y94.824 E912.61544
G1 X154.327 Y96.299 E915.77502
G1 X154.726 Y97.773 E918.88693
G1 X155.045 Y99.244 E921.95430
G1 X155.296 Y100.759 E925.08157
G1 X155.470 Y102.267 E928.17580
G1 X155.567 Y103.753 E931.20975
G1 X155.592 Y104.996 E933.74157
G1 X155.555 Y106.505 E936.81710
G1 X155.443 Y108.010 E939.89346
G1 X155.260 Y109.488 E942.92646
G1 X154.998 Y110.989 E946.03226
G1 X154.783 Y111.991 E948.11891
G1 X154.388 Y113.498 E951.29340
G1 X153.909 Y115.007 E954.52072
G1 X153.304 Y116.609 E958.00909
G1 X152.624 Y118.144 E961.42908
G1 X152.074 Y119.243 E963.93318
G1 X151.270 Y120.677 E967.28332
G1 X150.387 Y122.069 E970.64080
G1 X149.422 Y123.424 E974.03038
G1 X148.660 Y124.392 E976.54174
G1 X147.560 Y125.662 E979.96490
G1 X146.701 Y126.562 E982.49927
G1 X145.807 Y127.427 E985.03381
G1 X144.544 Y128.535 E988.45771
G1 X143.580 Y129.304 E990.97002
G1 X142.225 Y130.282 E994.37562
G1 X141.200 Y130.951 E996.86891
G1 X139.778 Y131.785 E1000.22718
G1 X138.332 Y132.534 E1003.54592
G1 X136.848 Y133.205 E1006.86273
G1 X136.123 Y133.499 E1008.45717
G1 X135.183 Y133.846 E1010.50000
G1 X133.701 Y134.327 E1013.67417
G1 X132.227 Y134.726 E1016.78608
G1 X130.756 Y135.045 E1019.85346
G1 X129.241 Y135.296 E1022.98072
G1 X127.733 Y135.470 E1026.07495
G1 X126.247 Y135.567 E1029.10890
G1 X125.004 Y135.592 E1031.64072
G1 X123.495 Y135.555 E1034.71626
G1 X121.990 Y135.443 E1037.79261
G1 X120.512 Y135.260 E1040.82561
G1 X119.011 Y134.998 E1043.93140
G1 X118.009 Y134.783 E1046.01806
G1 X116.502 Y134.388 E1049.19254
G1 X114.993 Y133.909 E1052.41987
G1 X113.391 Y133.304 E1055.90824
G1 X111.856 Y132.624 E1059.32824
G1 X110.757 Y132.074 E1061.83233
G1 X109.323 Y131.270 E1065.18247
G1 X107.931 Y130.387 E1068.53995
G1 X106.576 Y129.422 E1071.92953
G1 X105.608 Y128.660 E1074.44089
G1 X104.338 Y127.560 E1077.86404
G1 X103.438 Y126.701 E1080.39842
G1 X102.573 Y125.807 E1082.93296
G1 X101.465 Y124.544 E1086.35685
G1 X100.696 Y123.580 E1088.86916
G1 X99.718 Y122.225 E1092.27477
G1 X99.049 Y121.200 E1094.76806
G1 X98.215 Y119.778 E1098.12634
G1 X97.466 Y118.332 E1101.44507
G1 X96.795 Y116.848 E1104.76188
G1 X96.501 Y116.123 E1106.35632
G1 X96.154 Y115.183 E1108.39915
G1 X95.673 Y113.701 E1111.57333
G1 X95.274 Y112.227 E1114.68523
G1 X94.955 Y110.756 E1117.75260
G1 X94.704 Y109.241 E1120.87986
G1 X94.530 Y107.733 E1123.97410
G1 X94.433 Y106.247 E1127.00805
G1 X94.408 Y105.004 E1129.53987
G1 X94.445 Y103.495 E1132.61541
G1 X94.557 Y101.990 E1135.69177
G1 X94.740 Y100.512 E1138.72477
G1 X95.000 Y99.021 E1141.80872
G1 X95.341 Y97.511 E1144.96313
G1 X95.613 Y96.497 E1147.10248
G1 X96.089 Y94.998 E1150.30784
G1 X96.397 Y94.147 E1152.15086
G1 X96.861 Y92.997 E1154.67706
G1 X97.370 Y91.869 E1157.19917
G1 X98.122 Y90.390 E1160.57882
G1 X98.943 Y88.972 E1163.91917
G1 X99.846 Y87.590 E1167.28153
G1 X100.265 Y87.017 E1168.72841
G1 Z100 X100 Y100 